Candidate 2

Candidate 9

Candidate 7

Candidate 2

Candidate 15

Candidate 7

Candidate 1

Candidate 13

Candidate 14

Candidate 11

Candidate 9

Candidate 2

Candidate 2

Candidate 11

Candidate 7

Candidate 6

Candidate 2

Candidate 7

Candidate 13

Candidate 10

Candidate 1
Candidate 3

Candidate 6
