Noel Phelps

Newton Seth

Grant Sibyl

Ron Swanson

Sandy Cheeks

Alexander Bowen

Eve

Dahlia Vayu

Kailey Lew

Carl Wheezer

Lara Lorelle

Carl Wheezer

Eugene Krabs

Wanda Mordred

Corey Janene

Beetlemoon Frogsplat

Wanda Mordred

Sandy Cheeks

Lara Lorelle

Alice

Noel Phelps

Newton Seth

Alice

Othello

Sheldon Plankton
